…
R Markdown

This is an Rmarkdown first post to test.

set.seed(343)
x1 <- rnorm(10000, 5, 1.5)
x2 <- rnorm(10000, 7, 1.5)
a <- as.data.frame(cbind(x1,x2)) %>% 
  pivot_longer(cols  =c(x1,x2), names_to = "Distribution", values_to = "Value") %>% 
  mutate(Distribution = as.factor(Distribution))
a
## # A tibble: 20,000 x 2
##    Distribution Value
##    <fct>        <dbl>
##  1 x1            2.90
##  2 x2            6.30
##  3 x1            5.78
##  4 x2            7.89
##  5 x1            5.21
##  6 x2            6.55
##  7 x1            3.73
##  8 x2            8.96
##  9 x1            4.38
## 10 x2            7.67
## # ... with 19,990 more rows
…
